NONE,34
Fiction,15
Arthurian romances,2
Drama,1
Racially mixed children,1
Identity (Psychology),1
Ship captains,1
Social life and customs,1
Fraud investigation,1
Cartoonists,1
American Manuscripts,1
City and town life,1
Photographers,1